Given an int n, return true if it is within 10 of 100 or 200.
Hint: Check out the C# Math class for absolute value

NearHundred(103) -> true
NearHundred(90) -> true
NearHundred(89) -> false

///Test Cases
[TestCase(103, true)]
[TestCase(90, true)]
[TestCase(89, false)]

public bool NearHundred(int n) {
	return (Math.Abs(100-n) <= 10 || Math.Abs(200-n) <= 10);
}
