Given an array of ints, return the number of 9's in the array. 

Count9({1, 2, 9}) -> 1
Count9({1, 9, 9}) -> 2
Count9({1, 9, 9, 3, 9}) -> 3

///Test Cases
[TestCase(new int[]{1, 2, 9}, 1)]
[TestCase(new int[]{1, 9, 9}, 2)]
[TestCase(new int[]{1, 9, 9, 3, 9}, 3)]

public int Count9 (int[] numbers) {

}
