Given a day of the week encoded as 0=Sun, 1=Mon, 2=Tue, ...6=Sat, and a boolean indicating if we are on vacation, return a string of the form "7:00" indicating when the alarm clock should ring. Weekdays, the alarm should be "7:00" and on the weekend it should be "10:00". Unless we are on vacation -- then on weekdays it should be "10:00" and weekends it should be "off". 

AlarmClock(1, false) → "7:00"
AlarmClock(5, false) → "7:00"
AlarmClock(0, false) → "10:00"

///Test Cases
[TestCase(1, false, "7:00")]
[TestCase(5, false, "7:00")]
[TestCase(0, false, "10:00")]

public string AlarmClock(int day, bool vacation) {
	
	if(vacation){
		string alarm = "10:00";
		string alarmWknd = "off";
		if(day == 0 || day == 6){
			return alarmWknd;
		}
		return alarm;
	}
	else{
		string alarm = "7:00";
		string alarmWknd = "10:00";
		if(day == 0 || day == 6){
			return alarmWknd;
		}
		return alarm;
	}
}
